<svg width="24" height="25" viewBox="0 0 24 25" fill="none" xmlns="http://www.w3.org/2000/svg">
<path d="M21.5023 6.50704C20.7852 6.81642 20.0047 7.03907 19.2008 7.12579C20.0354 6.62994 20.6604 5.84657 20.9586 4.92267C20.1754 5.38858 19.3174 5.71528 18.4227 5.88829C18.0487 5.48851 17.5964 5.17002 17.094 4.95268C16.5916 4.73534 16.0498 4.6238 15.5023 4.62501C13.2875 4.62501 11.5062 6.42032 11.5062 8.62345C11.5062 8.93282 11.5437 9.2422 11.6047 9.53985C8.28828 9.36642 5.33047 7.78204 3.36406 5.35626C3.00576 5.96825 2.818 6.66507 2.82031 7.37423C2.82031 8.76173 3.52578 9.98517 4.60156 10.7047C3.96759 10.6797 3.34846 10.5055 2.79453 10.1961V10.2453C2.79453 12.1883 4.16797 13.7984 5.99844 14.1688C5.65475 14.258 5.30119 14.3037 4.94609 14.3047C4.68594 14.3047 4.43984 14.2789 4.19141 14.2438C4.69766 15.8281 6.17187 16.9789 7.92734 17.0164C6.55391 18.0922 4.83359 18.725 2.96563 18.725C2.63047 18.725 2.32109 18.7133 2 18.6758C3.77187 19.8125 5.87422 20.4688 8.13828 20.4688C15.4883 20.4688 19.5102 14.3797 19.5102 9.09454C19.5102 8.9211 19.5102 8.74767 19.4984 8.57423C20.2766 8.0047 20.9586 7.29923 21.5023 6.50704Z" fill="white"/>
</svg>
