ID,Title,Content,Excerpt,Date,"Post Type",Permalink,"Image URL","Image Title","Image Caption","Image Description","Image Alt Text","Image Featured","Attachment URL",Categories,Tags,Status,"Author ID","Author Username","Author Email","Author First Name","Author Last Name",Slug,Format,Template,Parent,"Parent Slug",Order,"Comment Status","Ping Status","Post Modified Date"
109,"Auretics Announces Mega Offer on<span> Internal Women’s Day</span>","Behind Every Successful Woman: The Power of a Supportive Community""- This blog celebrates the stories of women who have been able to achieve incredible accomplishments with the help of their friends, families, coworkers, and mentors.

Women in STEM: Breaking Barriers and Shaping the Future""- This article highlights the incredible contributions of women who are changing the game in traditionally male-dominated fields like science, technology, engineering, and math.

Actionable Steps for Achieving Gender Equality in the Workplace""- This post provides practical tips and strategies for workplaces to become more inclusive and supportive environments for women, from equal pay and fair hiring practices to flexible work arrangements and mentorship programs.

The Power of Women's Voices in Politics and Activism""- In this blog, readers can learn about the inspiring and influential women who are leading movements for social and political change around the world, from the Black Lives Matter movement to climate activism.

<img class=""img-fluid d-md-block d-none"" src=""http://auretics.test/wp-content/themes/auretics/assets/images/blog-detail.webp');"" alt=""blog-detail"" />

Behind Every Successful Woman: The Power of a Supportive Community""- This blog celebrates the stories of women who have been able to achieve incredible accomplishments
with the help of their friends, families, coworkers, and mentors.

Women in STEM: Breaking Barriers and Shaping the Future""- This article highlights the incredible contributions of women who are changing the game in traditionally male
-dominated fields like science, technology, engineering, and math.

Actionable Steps for Achieving Gender Equality in the Workplace""- This post provides practical tips and strategies for workplaces to become more inclusive and supportive
environments for women, from equal pay and fair hiring practices to flexible work arrangements and mentorship programs.

The Power of Women's Voices in Politics and Activism""- In this blog, readers can learn about the inspiring and influential women who are leading movements for social and political
change around the world, from the Black Lives Matter movement to climate activism.

Self-Care and Empowerment: Prioritizing Women's Mental Health""- This blog explores the importance of self-care and mental health for women, offering tips and advice for taking
care of oneself in a busy and demanding world.",,2023-05-19,post,http://auretics.test/auretics-announces-mega-offer-on-internal-womens-day/,http://auretics.test/wp-content/uploads/2023/05/Blog-img.png,Blog-img,,,,http://auretics.test/wp-content/uploads/2023/05/Blog-img.png,,"News &amp; BLOGS",,publish,1,admin,flyingsaints.lovepreet@gmail.com,,,auretics-announces-mega-offer-on-internal-womens-day,,,0,0,0,open,open,2023-05-19
115,"How to be your own boss - Fun facts","Behind Every Successful Woman: The Power of a Supportive Community""- This blog celebrates the stories of women who have been able to achieve incredible accomplishments with the help of their friends, families, coworkers, and mentors.

Women in STEM: Breaking Barriers and Shaping the Future""- This article highlights the incredible contributions of women who are changing the game in traditionally male-dominated fields like science, technology, engineering, and math.

Actionable Steps for Achieving Gender Equality in the Workplace""- This post provides practical tips and strategies for workplaces to become more inclusive and supportive environments for women, from equal pay and fair hiring practices to flexible work arrangements and mentorship programs.

The Power of Women's Voices in Politics and Activism""- In this blog, readers can learn about the inspiring and influential women who are leading movements for social and political change around the world, from the Black Lives Matter movement to climate activism.

Behind Every Successful Woman: The Power of a Supportive Community""- This blog celebrates the stories of women who have been able to achieve incredible accomplishments
with the help of their friends, families, coworkers, and mentors.

Women in STEM: Breaking Barriers and Shaping the Future""- This article highlights the incredible contributions of women who are changing the game in traditionally male
-dominated fields like science, technology, engineering, and math.

Actionable Steps for Achieving Gender Equality in the Workplace""- This post provides practical tips and strategies for workplaces to become more inclusive and supportive
environments for women, from equal pay and fair hiring practices to flexible work arrangements and mentorship programs.

The Power of Women's Voices in Politics and Activism""- In this blog, readers can learn about the inspiring and influential women who are leading movements for social and political
change around the world, from the Black Lives Matter movement to climate activism.

Self-Care and Empowerment: Prioritizing Women's Mental Health""- This blog explores the importance of self-care and mental health for women, offering tips and advice for taking
care of oneself in a busy and demanding world.",,2023-05-19,post,http://auretics.test/how-to-be-your-own-boss-fun-facts/,http://auretics.test/wp-content/uploads/2023/05/blog-3.png|http://auretics.test/wp-content/uploads/2023/05/blog1.png,blog-3|blog1,|,|,|,http://auretics.test/wp-content/uploads/2023/05/blog-3.png,,"News &amp; BLOGS",,publish,1,admin,flyingsaints.lovepreet@gmail.com,,,how-to-be-your-own-boss-fun-facts,,,0,0,0,open,open,2023-05-19
120,"Auretics Announces Mega Offer on<span> Internal Women’s Day</span>","Behind Every Successful Woman: The Power of a Supportive Community""- This blog celebrates the stories of women who have been able to achieve incredible accomplishments with the help of their friends, families, coworkers, and mentors.

Women in STEM: Breaking Barriers and Shaping the Future""- This article highlights the incredible contributions of women who are changing the game in traditionally male-dominated fields like science, technology, engineering, and math.

Actionable Steps for Achieving Gender Equality in the Workplace""- This post provides practical tips and strategies for workplaces to become more inclusive and supportive environments for women, from equal pay and fair hiring practices to flexible work arrangements and mentorship programs.

The Power of Women's Voices in Politics and Activism""- In this blog, readers can learn about the inspiring and influential women who are leading movements for social and political change around the world, from the Black Lives Matter movement to climate activism.

<img class=""img-fluid d-md-block d-none"" src=""http://auretics.test/wp-content/themes/auretics/assets/images/blog-detail.webp');"" alt=""blog-detail"" />

Behind Every Successful Woman: The Power of a Supportive Community""- This blog celebrates the stories of women who have been able to achieve incredible accomplishments
with the help of their friends, families, coworkers, and mentors.

Women in STEM: Breaking Barriers and Shaping the Future""- This article highlights the incredible contributions of women who are changing the game in traditionally male
-dominated fields like science, technology, engineering, and math.

Actionable Steps for Achieving Gender Equality in the Workplace""- This post provides practical tips and strategies for workplaces to become more inclusive and supportive
environments for women, from equal pay and fair hiring practices to flexible work arrangements and mentorship programs.

The Power of Women's Voices in Politics and Activism""- In this blog, readers can learn about the inspiring and influential women who are leading movements for social and political
change around the world, from the Black Lives Matter movement to climate activism.

Self-Care and Empowerment: Prioritizing Women's Mental Health""- This blog explores the importance of self-care and mental health for women, offering tips and advice for taking
care of oneself in a busy and demanding world.",,2023-05-19,post,http://auretics.test/auretics-announces-mega-offer-on-internal-womens-day-2/,http://auretics.test/wp-content/uploads/2023/05/blog1.png,blog1,,,,http://auretics.test/wp-content/uploads/2023/05/blog1.png,,"News &amp; BLOGS",,publish,1,admin,flyingsaints.lovepreet@gmail.com,,,auretics-announces-mega-offer-on-internal-womens-day-2,,,0,0,0,open,open,2023-05-19
122,"Auretics Announces Mega Offer on<span> Internal Women’s Day</span>","Behind Every Successful Woman: The Power of a Supportive Community""- This blog celebrates the stories of women who have been able to achieve incredible accomplishments with the help of their friends, families, coworkers, and mentors.

Women in STEM: Breaking Barriers and Shaping the Future""- This article highlights the incredible contributions of women who are changing the game in traditionally male-dominated fields like science, technology, engineering, and math.

Actionable Steps for Achieving Gender Equality in the Workplace""- This post provides practical tips and strategies for workplaces to become more inclusive and supportive environments for women, from equal pay and fair hiring practices to flexible work arrangements and mentorship programs.

The Power of Women's Voices in Politics and Activism""- In this blog, readers can learn about the inspiring and influential women who are leading movements for social and political change around the world, from the Black Lives Matter movement to climate activism.

<img class=""img-fluid d-md-block d-none"" src=""http://auretics.test/wp-content/themes/auretics/assets/images/blog-detail.webp');"" alt=""blog-detail"" />

Behind Every Successful Woman: The Power of a Supportive Community""- This blog celebrates the stories of women who have been able to achieve incredible accomplishments
with the help of their friends, families, coworkers, and mentors.

Women in STEM: Breaking Barriers and Shaping the Future""- This article highlights the incredible contributions of women who are changing the game in traditionally male
-dominated fields like science, technology, engineering, and math.

Actionable Steps for Achieving Gender Equality in the Workplace""- This post provides practical tips and strategies for workplaces to become more inclusive and supportive
environments for women, from equal pay and fair hiring practices to flexible work arrangements and mentorship programs.

The Power of Women's Voices in Politics and Activism""- In this blog, readers can learn about the inspiring and influential women who are leading movements for social and political
change around the world, from the Black Lives Matter movement to climate activism.

Self-Care and Empowerment: Prioritizing Women's Mental Health""- This blog explores the importance of self-care and mental health for women, offering tips and advice for taking
care of oneself in a busy and demanding world.",,2023-05-19,post,http://auretics.test/auretics-announces-mega-offer-on-internal-womens-day-3/,http://auretics.test/wp-content/uploads/2023/05/Blog-img.png,Blog-img,,,,http://auretics.test/wp-content/uploads/2023/05/Blog-img.png,,"News &amp; BLOGS",,publish,1,admin,flyingsaints.lovepreet@gmail.com,,,auretics-announces-mega-offer-on-internal-womens-day-3,,,0,0,0,open,open,2023-05-19
124,"How to be your own boss - Fun facts","Behind Every Successful Woman: The Power of a Supportive Community""- This blog celebrates the stories of women who have been able to achieve incredible accomplishments with the help of their friends, families, coworkers, and mentors.

Women in STEM: Breaking Barriers and Shaping the Future""- This article highlights the incredible contributions of women who are changing the game in traditionally male-dominated fields like science, technology, engineering, and math.

Actionable Steps for Achieving Gender Equality in the Workplace""- This post provides practical tips and strategies for workplaces to become more inclusive and supportive environments for women, from equal pay and fair hiring practices to flexible work arrangements and mentorship programs.

The Power of Women's Voices in Politics and Activism""- In this blog, readers can learn about the inspiring and influential women who are leading movements for social and political change around the world, from the Black Lives Matter movement to climate activism.

Behind Every Successful Woman: The Power of a Supportive Community""- This blog celebrates the stories of women who have been able to achieve incredible accomplishments
with the help of their friends, families, coworkers, and mentors.

Women in STEM: Breaking Barriers and Shaping the Future""- This article highlights the incredible contributions of women who are changing the game in traditionally male
-dominated fields like science, technology, engineering, and math.

Actionable Steps for Achieving Gender Equality in the Workplace""- This post provides practical tips and strategies for workplaces to become more inclusive and supportive
environments for women, from equal pay and fair hiring practices to flexible work arrangements and mentorship programs.

The Power of Women's Voices in Politics and Activism""- In this blog, readers can learn about the inspiring and influential women who are leading movements for social and political
change around the world, from the Black Lives Matter movement to climate activism.

Self-Care and Empowerment: Prioritizing Women's Mental Health""- This blog explores the importance of self-care and mental health for women, offering tips and advice for taking
care of oneself in a busy and demanding world.",,2023-05-19,post,http://auretics.test/how-to-be-your-own-boss-fun-facts-2/,http://auretics.test/wp-content/uploads/2023/05/blog-3.png,blog-3,,,,http://auretics.test/wp-content/uploads/2023/05/blog-3.png,,"News &amp; BLOGS",,publish,1,admin,flyingsaints.lovepreet@gmail.com,,,how-to-be-your-own-boss-fun-facts-2,,,0,0,0,open,open,2023-05-22
