<svg width="56" height="56" viewBox="0 0 56 56" fill="none" xmlns="http://www.w3.org/2000/svg">
<path d="M30.863 28.8979L30.9805 26.5957C31.654 25.5995 32.2574 23.5735 32.0202 23.4116C31.7568 23.2316 31.0274 22.7822 30.7515 22.5119C30.4756 22.2423 29.804 22.5635 29.124 22.0729C28.444 21.5823 28.4971 21.6423 28.0796 21.5823C27.662 21.5223 26.6621 21.1626 26.6621 21.1626C26.6621 21.1626 25.9533 21.5523 26.2455 21.7319C26.5371 21.9116 28.7252 22.3313 29.1005 23.261C29.4755 24.19 28.0284 26.9785 28.0799 27.1882C28.0936 27.2451 28.2408 27.3082 28.4621 27.3544L28.3486 27.7572H27.7174C27.7286 27.3685 27.7533 27.0826 27.7968 26.9713C28.0311 26.3722 28.8115 25.1 28.4211 23.7529C28.0308 22.4057 25.7677 21.9664 25.7677 21.9664C25.7677 21.9664 25.1433 20.3101 26.158 19.8614C27.1727 19.4126 28.0311 17.3917 27.0943 17.5411C27.0177 17.5533 26.9458 17.5636 26.8761 17.5733C26.9074 17.7517 26.9358 18.0517 26.8411 18.3154C26.6961 18.7217 26.1155 18.8092 25.5927 18.7598C25.223 18.7248 25.2965 18.1264 25.3715 17.7782C25.1502 17.8267 24.8996 17.8929 24.5968 17.9901C23.4262 18.3642 22.1778 19.1876 22.4115 19.9363C22.6459 20.6851 22.1771 22.8554 22.4115 24.3523C22.6459 25.8491 24.4946 26.5975 25.0506 27.2713C25.1271 27.3641 25.2302 27.7579 25.2302 27.7579V37.9818H20.4858V43.615H25.2302L25.2306 48.2059H30.863V43.6153H35.6074V37.9822H30.863V28.8979Z" fill="#000839"/>
<path d="M25.7673 15.1965C24.987 15.3462 24.3623 17.7968 24.3623 17.7968C24.7082 17.554 27.4495 17.1893 27.4495 17.1893C27.4495 17.1893 27.6398 16.7681 27.7179 16.3524C27.7964 15.9371 26.5476 15.0465 25.7673 15.1965Z" fill="#000839"/>
<path d="M26.2873 20.0888C26.2873 20.0888 26.1935 20.2388 26.2873 20.4485C26.381 20.6582 26.9751 21.1679 27.8504 21.2582C28.7257 21.3482 28.8822 20.2692 29.4448 18.9798C30.0076 17.6911 30.1326 16.9414 29.4448 16.488C28.757 16.0345 28.4445 16.2517 28.1945 16.312C27.9445 16.372 27.8504 17.1517 27.8504 17.1517C28.0376 19.0999 26.2873 20.0888 26.2873 20.0888Z" fill="#000839"/>
<path d="M31.9977 17.6302C31.3098 17.1505 30.5736 16.7437 30.4661 17.1205C30.4414 17.2074 29.247 21.0884 28.872 21.2627C28.497 21.4374 30.091 22.2599 30.5913 21.9961C31.0913 21.7321 32.6854 18.1099 31.9976 17.6302L31.9977 17.6302Z" fill="#000839"/>
<path d="M32.0858 22.9662C32.6761 23.0227 33.9971 20.1649 33.7099 19.7227C33.4227 19.2805 32.444 18.4521 32.3324 18.8309C32.3324 18.8309 31.3852 22.1534 31.0121 22.1043C30.6386 22.0553 31.4952 22.9096 32.0858 22.9662Z" fill="#000839"/>
<path d="M27.9175 7.85938C20.1391 7.85938 13.8599 14.1875 13.8599 21.9658C13.8599 28.1899 18.1895 33.4842 23.5655 35.353V30.3136C20.4295 28.7186 18.5039 25.5755 18.5039 21.9664C18.5039 16.7486 22.7245 12.504 27.9423 12.504C33.16 12.504 37.3927 16.7487 37.3927 21.9664C37.3927 25.4699 35.6451 28.5317 32.8083 30.168L32.9736 30.208V35.2639C37.9017 33.3215 42.1976 28.0943 42.1976 21.9663C42.1973 14.1879 35.6957 7.85993 27.9176 7.85993L27.9175 7.85938Z" fill="#000839"/>
</svg>
