<svg width="50" height="52" viewBox="0 0 50 52" fill="none" xmlns="http://www.w3.org/2000/svg">
<path d="M49.4075 44.3764C49.3384 44.5657 49.1681 44.6999 48.968 44.722L43.5535 45.2559L43.0143 50.6547H43.0139C42.9974 50.8584 42.862 51.0332 42.6683 51.0999C42.6129 51.1188 42.5542 51.1276 42.4956 51.126C42.3566 51.1264 42.2228 51.0718 42.1239 50.9741L30.4414 39.2916C30.8464 39.2796 31.2482 39.2125 31.6351 39.0927C32.6608 38.8139 33.5653 38.2024 34.2061 37.3542C34.8465 36.5061 35.1876 35.4691 35.1748 34.4059V34.2018C35.1599 33.9146 35.223 33.6285 35.358 33.3746C35.4966 33.0857 35.7148 32.8426 35.9864 32.6726C36.258 32.5031 36.5722 32.4143 36.8924 32.4163C37.0214 32.4167 37.1496 32.4328 37.2745 32.4633C37.5196 32.5147 37.7683 32.5481 38.0182 32.5629L49.2872 43.8258C49.4287 43.9713 49.4757 44.1846 49.4074 44.3759L49.4075 44.3764Z" fill="#FFA41B"/>
<path d="M19.6502 39.297L7.95228 50.995C7.80804 51.1372 7.59509 51.1842 7.40425 51.1163C7.2134 51.0484 7.0784 50.8768 7.05711 50.6755L6.52273 45.2768L1.11872 44.7376C0.916626 44.7207 0.743456 44.5845 0.67917 44.392C0.611268 44.2024 0.657875 43.9907 0.799307 43.8472L12.094 32.5525C12.3279 32.5396 12.5605 32.5115 12.7903 32.4685L12.853 32.458H12.8534C12.9719 32.4311 13.0929 32.4175 13.2146 32.4163C13.4151 32.4171 13.614 32.4544 13.8012 32.5263C14.2086 32.6806 14.5457 32.9788 14.749 33.3641C14.8708 33.6023 14.9339 33.8663 14.9322 34.1339V34.2179V34.2175C14.8816 35.3175 15.2075 36.4015 15.8556 37.2916C16.5036 38.1816 17.4357 38.8243 18.4981 39.1137C18.8745 39.2153 19.2606 39.2764 19.65 39.2969L19.6502 39.297Z" fill="#FFA41B"/>
<path d="M26.5338 17.4862L25.0488 14.4768L23.563 17.487C23.4348 17.7474 23.1861 17.9282 22.8985 17.9692L19.5781 18.4521L21.9816 20.7945V20.7941C22.1893 20.997 22.2841 21.2891 22.2351 21.5756L21.6682 24.8826L24.6386 23.3212C24.8953 23.1854 25.2023 23.1854 25.4591 23.3212L28.4295 24.8826L27.8625 21.5747C27.8135 21.2891 27.908 20.997 28.1157 20.7941L30.5191 18.4513L27.1988 17.9683V17.9687C26.9111 17.9274 26.662 17.747 26.5338 17.4862Z" fill="#FFA41B"/>
<path d="M25.0569 9.28151C22.3276 9.27709 19.7087 10.3579 17.7762 12.2852C15.844 14.2126 14.7568 16.8291 14.7539 19.5584C14.7511 22.2873 15.8331 24.9061 17.7612 26.8376C19.6898 28.7689 22.3066 29.8546 25.036 29.8562C27.7653 29.8574 30.3834 28.7742 32.3136 26.8449C34.2442 24.9155 35.3285 22.2983 35.3285 19.569C35.3253 16.8441 34.2429 14.2316 32.3176 12.3035C30.3926 10.3753 27.7814 9.2884 25.0569 9.28151ZM31.4903 18.969L28.9096 21.4826L29.5187 25.0348C29.577 25.3663 29.4416 25.7014 29.1696 25.8998C28.8976 26.0979 28.5368 26.124 28.239 25.9669L25.0488 24.2915L21.8586 25.9669C21.5613 26.1232 21.2017 26.0971 20.9301 25.8994C20.6585 25.7022 20.5227 25.3675 20.5797 25.0364L21.1889 21.4851L18.6078 18.9714C18.3671 18.7368 18.2807 18.3864 18.3848 18.067C18.4884 17.7476 18.7648 17.515 19.0971 17.4668L22.6626 16.9484L24.2592 13.7156C24.4079 13.4143 24.7144 13.2239 25.0503 13.2239C25.3862 13.2239 25.6932 13.4143 25.8419 13.7156L27.437 16.9468L31.0028 17.4651C31.3351 17.5133 31.6111 17.746 31.7152 18.0654C31.8188 18.3848 31.7325 18.7351 31.4918 18.9698L31.4903 18.969Z" fill="#FFA41B"/>
<path d="M41.9155 20.7601C42.8789 20.2495 43.5797 19.3535 43.8436 18.296C44.1076 17.2381 43.9095 16.1179 43.2992 15.2143C42.6889 14.3111 41.723 13.7096 40.643 13.5601C39.9744 13.4713 39.3605 13.1439 38.9149 12.6372C38.4693 12.131 38.2218 11.4805 38.2186 10.8059C38.2251 10.4467 38.2978 10.0915 38.4336 9.75836C38.9282 8.58558 38.796 7.24154 38.0824 6.18726C37.3708 5.12536 36.1823 4.48127 34.9043 4.4644C34.1747 4.46279 33.4599 4.67212 32.8464 5.06668C32.1123 5.53034 31.203 5.62356 30.3902 5.3182C29.583 5.02369 28.9619 4.36597 28.7148 3.54309C28.3797 2.50289 27.6183 1.65473 26.6203 1.20988C25.6227 0.765503 24.4828 0.766305 23.4855 1.21229C22.4883 1.65827 21.7277 2.50767 21.3942 3.54828C21.2171 4.1164 20.8615 4.61223 20.3805 4.96297C19.9 5.31374 19.3191 5.50057 18.7236 5.49614C18.2021 5.49735 17.6914 5.34829 17.2522 5.06663C16.6809 4.69458 16.0188 4.48485 15.3369 4.45994C14.6555 4.43503 13.9802 4.59614 13.3827 4.9252C12.7788 5.24984 12.2729 5.73038 11.9186 6.31738C11.5638 6.90398 11.3734 7.57532 11.3669 8.26086C11.3629 8.76671 11.4646 9.26774 11.6651 9.73223C11.7952 10.0758 11.8659 10.4386 11.8748 10.8059C11.874 11.4784 11.6297 12.1281 11.1865 12.6348C10.7438 13.141 10.1327 13.4697 9.46604 13.5601C8.53912 13.6842 7.68939 14.1431 7.07698 14.8498C6.46466 15.5569 6.13158 16.4634 6.14081 17.3983C6.14001 18.0922 6.33005 18.7728 6.69005 19.3658C7.05045 19.9589 7.56674 20.441 8.18312 20.7601C8.95053 21.159 9.48889 21.8923 9.63876 22.7445C9.78862 23.5963 9.53309 24.4694 8.94728 25.1062C8.18911 25.9222 7.83395 27.0335 7.97857 28.1381C8.13366 29.274 8.77371 30.2865 9.7328 30.9136C10.3387 31.3086 11.0466 31.5179 11.7699 31.5155C12.056 31.5127 12.3416 31.4866 12.6233 31.4371C13.1344 31.3222 13.6671 31.3584 14.1577 31.542C14.8126 31.7819 15.3542 32.2584 15.6761 32.8771C15.8766 33.2656 15.9806 33.6967 15.9798 34.1339V34.2597C15.9388 35.1211 16.1924 35.9713 16.6986 36.67C17.2049 37.3683 17.9341 37.8738 18.7658 38.1032C19.119 38.2005 19.4834 38.2515 19.8499 38.2551C20.1223 38.2563 20.3947 38.2282 20.6615 38.1711C21.5297 37.9807 22.2987 37.4801 22.8238 36.7625C22.8652 36.7352 22.9022 36.7014 22.9339 36.6633C23.4619 36.0449 24.2337 35.6893 25.0469 35.6893C25.8597 35.6893 26.6315 36.0449 27.1595 36.6633C27.174 36.6785 27.1896 36.6926 27.2069 36.7051L27.6103 36.3752L27.2491 36.7469L27.2439 36.7573H27.2435C27.7851 37.4668 28.5573 37.965 29.4268 38.1659C29.4377 38.1651 29.4485 38.1667 29.4586 38.1711C30.5952 38.4018 31.7752 38.1141 32.6785 37.3861C33.5813 36.6584 34.1133 35.566 34.1293 34.406V34.2593V34.2597C34.1036 33.7852 34.2064 33.3131 34.4278 32.8929C34.746 32.2685 35.2856 31.7851 35.941 31.5368C36.4396 31.3564 36.9788 31.3218 37.4963 31.4371C38.4907 31.6609 39.5338 31.4721 40.3868 30.9136C41.482 30.1884 42.1442 28.965 42.1514 27.6511C42.1542 26.7073 41.7986 25.798 41.1565 25.1062C40.6832 24.5951 40.4233 23.9229 40.4285 23.2267C40.4285 22.7192 40.5671 22.221 40.8291 21.7867C41.0915 21.352 41.4667 20.9972 41.9155 20.7601ZM25.0541 30.9021C22.0472 30.9057 19.1619 29.7144 17.0336 27.5906C14.905 25.4664 13.7076 22.5835 13.7052 19.5766C13.7028 16.5696 14.8953 13.6852 17.0203 11.5573C19.1454 9.4298 22.0285 8.23408 25.0356 8.23295C28.0426 8.23182 30.9269 9.42548 33.0532 11.5513C35.1799 13.6772 36.3748 16.5612 36.3748 19.5681C36.3711 22.5703 35.1778 25.4487 33.0564 27.5733C30.9349 29.6975 28.0577 30.8944 25.0556 30.9021H25.0541Z" fill="#FFA41B"/>
</svg>
