<svg width="100" height="100" viewBox="0 0 100 100" fill="none" xmlns="http://www.w3.org/2000/svg">
<circle cx="50" cy="50" r="50" fill="#FFA41B"/>
<path d="M28 65.0656C28 63.2861 30.7045 63.2861 30.7045 65.0656V76.6628C30.7045 78.4423 28 78.4423 28 76.6628V65.0656ZM35.2947 24.3346C35.2947 22.5551 37.9992 22.5551 37.9992 24.3346V25.8697C41.3019 26.5021 43.7977 29.4049 43.7977 32.8925C43.7977 34.6705 41.0932 34.6705 41.0932 32.8925C41.0932 30.436 39.1018 28.4463 36.6469 28.4463C34.1904 28.4463 32.2007 30.4377 32.2007 32.8925C32.2007 35.3474 34.1905 37.3388 36.6469 37.3388C40.596 37.3388 43.7977 40.5406 43.7977 44.4895C43.7977 47.977 41.3019 50.8799 37.9992 51.5123V53.0474C37.9992 54.8269 35.2947 54.8269 35.2947 53.0474V51.5123C31.992 50.8799 29.4962 47.9771 29.4962 44.4895C29.4962 42.7115 32.2007 42.7115 32.2007 44.4895C32.2007 46.946 34.1905 48.9357 36.6469 48.9357C39.1018 48.9357 41.0932 46.9459 41.0932 44.4895C41.0932 42.0346 39.1018 40.0433 36.6469 40.0433C32.6979 40.0433 29.4962 36.8415 29.4962 32.8925C29.4962 29.4051 31.992 26.5021 35.2947 25.8697V24.3346ZM66.9134 36.7011L71.8797 43.2039C72.5582 44.0911 71.919 45.375 70.8077 45.375H67.1782V76.663C67.1782 78.4425 64.4737 78.4425 64.4737 76.663V45.375H60.8443C59.6718 45.375 59.0751 43.9921 59.8271 43.134L64.754 36.6825C65.3045 35.9626 66.3848 35.9833 66.9131 36.7031L66.9134 36.7011ZM65.8263 39.7235L63.5749 42.6709H68.0776L65.8263 39.7235ZM57.1793 48.2317C57.1793 46.4522 59.8838 46.4522 59.8838 48.2317V76.6624C59.8838 78.4419 57.1793 78.4419 57.1793 76.6624V48.2317ZM49.8846 52.4406C49.8846 50.6595 52.5891 50.6595 52.5891 52.4406V76.6627C52.5891 78.4422 49.8846 78.4422 49.8846 76.6627V52.4406ZM42.5899 56.6496C42.5899 54.8701 45.2944 54.8701 45.2944 56.6496V76.663C45.2944 78.4425 42.5899 78.4425 42.5899 76.663V56.6496ZM35.2952 60.8585C35.2952 59.079 37.9997 59.079 37.9997 60.8585V76.6654C37.9997 78.4449 35.2952 78.4449 35.2952 76.6654V60.8585Z" fill="white"/>
</svg>
